{
	"ListOfInvoices": {
		"ListOfInvoice":
		[{
				"ApplicationNumber": "NPBD/EZ/000000029",
				"Company": "FRL",
				"LOBName": "E Zone",
				"BankName": "BOI",
				"ApplicationDate": "43123",
				"DueDate": "43213",
				"UserRemarks": "",
				"BatchNumber": "BPBD/EZ/0221/17-18",
				"ApplicationAmount": "541681.54",
				"SupplierName": "EZ-Usha Interna"

			}, {
				"ApplicationNumber": "NPBD/HF/000000017",
				"Company": "FRL",
				"LOBName": "Home Fashion",
				"BankName": "CORP",
				"ApplicationDate": "43117",
				"DueDate": "43207",
				"UserRemarks": "",
				"BatchNumber": "BPBD/HF/0185/17-18",
				"ApplicationAmount": "1648841.88",
				"SupplierName": "Noya Life Style"
			}, {
				"ApplicationNumber": "NPBD/HF/000000018",
				"Company": "FRL",
				"LOBName": "Home Fashion",
				"BankName": "CORP",
				"ApplicationDate": "43117",
				"DueDate": "43207",
				"UserRemarks": "",
				"BatchNumber": "BPBD/HF/0185/17-18",
				"ApplicationAmount": "1862841.88",
				"SupplierName": "Noya Life Style"
			}, {
				"ApplicationNumber": "NPBD/EZ/000000019",
				"Company": "FRL",
				"LOBName": "E Zone",
				"BankName": "BOI",
				"ApplicationDate": "43123",
				"DueDate": "43213",
				"UserRemarks": "",
				"BatchNumber": "BPBD/EZ/0221/17-18",
				"ApplicationAmount": "901681.54",
				"SupplierName": "EZ-Usha Interna"
			}, {
				"ApplicationNumber": "NPBD/HF/000000020",
				"Company": "FRL",
				"LOBName": "Home Fashion",
				"BankName": "CORP",
				"ApplicationDate": "43117",
				"DueDate": "43207",
				"UserRemarks": "",
				"BatchNumber": "BPBD/HF/0185/17-18",
				"ApplicationAmount": "2108841.88",
				"SupplierName": "Noya Life Style"
			}, {
				"ApplicationNumber": "NPBD/EZ/000000021",
				"Company": "FRL",
				"LOBName": "E Zone",
				"BankName": "BOI",
				"ApplicationDate": "43123",
				"DueDate": "43213",
				"UserRemarks": "",
				"BatchNumber": "BPBD/EZ/0221/17-18",
				"ApplicationAmount": "801901.54",
				"SupplierName": "EZ-Usha Interna"
			}
		]
	}
}